{
  "name": "osric",
  "id": "osric",
  "title": "Motholam",
  "description": "System for Motholam using OSRIC by Celestian as a base.",
  "version": "2023.02.08",
  "compatibility": {
    "minimum": "10",
    "verified": "10.290"
  },
  "manifestPlusVersion": "1.0.0",
  "templateVersion": 3,
  "socket": true,
  "authors": [
    {
      "name": "canary",
      "discord": "canary#7614"
    }
  ],
  "esmodules": ["module/osric.js"],
  "styles": ["osric.css"],
  "scripts": [],
  "languages": [
    {
      "lang": "en",
      "name": "English",
      "path": "lang/en.json"
    }
  ],
  "gridDistance": 10,
  "gridUnits": "ft",
  "primaryTokenAttribute": "attributes.hp",
  "secondaryTokenAttribute": "attributes.ac",
  "initiative": "1d6",
  "packs": [
    {
      "name": "ruleset-documentation",
      "label": "Ruleset Documentation",
      "system": "OSRIC",
      "path": "packs/ruleset-documentation.db",
      "type": "JournalEntry",
      "private": false,
      "flags": {}
    }
  ],
  "url": "https://gitlab.com/canaryinacoalmine/main",
  "manifest": "https://gitlab.com/canaryinacoalmine/main/-/blob/main/src/system.json",
  "download": "https://gitlab.com/canaryinacoalmine/main/-/blob/main/package/osric-v2023.02.08.zip",
  "license": "LICENSE.md"
}
